<?xml version="1.0" encoding="utf-8"?>
<svg xmlns="http://www.w3.org/2000/svg" xmlns:xlink="http://www.w3.org/1999/xlink" style="margin: auto; background: none; display: block; shape-rendering: auto;" width="154px" height="154px" viewBox="0 0 100 100" preserveAspectRatio="xMidYMid">
<circle cx="50" cy="50" fill="none" stroke="rgba(92, 184, 92, 0.2)" stroke-width="5" r="47" stroke-dasharray="221.48228207808043 75.82742735936014" transform="rotate(114.965 50 50)">
  <animateTransform attributeName="transform" type="rotate" repeatCount="indefinite" dur="0.78125s" values="0 50 50;360 50 50" keyTimes="0;1"></animateTransform>
</circle>
<!-- [ldio] generated by https://loading.io/ --></svg>